%YAML 1.1
%TAG !u! tag:unity3d.com,2011:
--- !u!74 &7400000
AnimationClip:
  m_ObjectHideFlags: 0
  m_CorrespondingSourceObject: {fileID: 0}
  m_PrefabInstance: {fileID: 0}
  m_PrefabAsset: {fileID: 0}
  m_Name: 12312
  serializedVersion: 6
  m_Legacy: 0
  m_Compressed: 0
  m_UseHighQualityCurve: 1
  m_RotationCurves: []
  m_CompressedRotationCurves: []
  m_EulerCurves: []
  m_PositionCurves: []
  m_ScaleCurves: []
  m_FloatCurves: []
  m_PPtrCurves:
  - curve:
    - time: 0.016666668
      value: {fileID: 21300000, guid: 450aa613889f3b9489372fabc5e54139, type: 3}
    - time: 0.41666666
      value: {fileID: 21300000, guid: 0a7a40e5aa5d8574e94cf8d25937b02e, type: 3}
    - time: 0.81666666
      value: {fileID: 21300000, guid: 18eef45c5c9c28f43bd606c0924d064c, type: 3}
    - time: 1.2
      value: {fileID: 21300000, guid: 282656d656c0ee74e90a9341d8494bdf, type: 3}
    - time: 1.6166667
      value: {fileID: 21300000, guid: 114657a797cd1474dad3d6619b0a207d, type: 3}
    - time: 2
      value: {fileID: 21300000, guid: 4ad4211db03fcd849b4bd45c19a535b7, type: 3}
    - time: 2.5
      value: {fileID: 21300000, guid: 78f78a26e02281748a591574de304d1c, type: 3}
    - time: 2.9
      value: {fileID: 21300000, guid: 838d021ead3a8a54ab73f764825230cb, type: 3}
    attribute: m_Sprite
    path: 
    classID: 212
    script: {fileID: 0}
  m_SampleRate: 60
  m_WrapMode: 0
  m_Bounds:
    m_Center: {x: 0, y: 0, z: 0}
    m_Extent: {x: 0, y: 0, z: 0}
  m_ClipBindingConstant:
    genericBindings:
    - serializedVersion: 2
      path: 0
      attribute: 0
      script: {fileID: 0}
      typeID: 212
      customType: 23
      isPPtrCurve: 1
    pptrCurveMapping:
    - {fileID: 21300000, guid: 450aa613889f3b9489372fabc5e54139, type: 3}
    - {fileID: 21300000, guid: 0a7a40e5aa5d8574e94cf8d25937b02e, type: 3}
    - {fileID: 21300000, guid: 18eef45c5c9c28f43bd606c0924d064c, type: 3}
    - {fileID: 21300000, guid: 282656d656c0ee74e90a9341d8494bdf, type: 3}
    - {fileID: 21300000, guid: 114657a797cd1474dad3d6619b0a207d, type: 3}
    - {fileID: 21300000, guid: 4ad4211db03fcd849b4bd45c19a535b7, type: 3}
    - {fileID: 21300000, guid: 78f78a26e02281748a591574de304d1c, type: 3}
    - {fileID: 21300000, guid: 838d021ead3a8a54ab73f764825230cb, type: 3}
  m_AnimationClipSettings:
    serializedVersion: 2
    m_AdditiveReferencePoseClip: {fileID: 0}
    m_AdditiveReferencePoseTime: 0
    m_StartTime: 0
    m_StopTime: 2.9166667
    m_OrientationOffsetY: 0
    m_Level: 0
    m_CycleOffset: 8
    m_HasAdditiveReferencePose: 0
    m_LoopTime: 1
    m_LoopBlend: 0
    m_LoopBlendOrientation: 0
    m_LoopBlendPositionY: 0
    m_LoopBlendPositionXZ: 0
    m_KeepOriginalOrientation: 0
    m_KeepOriginalPositionY: 1
    m_KeepOriginalPositionXZ: 0
    m_HeightFromFeet: 0
    m_Mirror: 0
  m_EditorCurves: []
  m_EulerEditorCurves: []
  m_HasGenericRootTransform: 0
  m_HasMotionFloatCurves: 0
  m_Events: []
